 _____         _         _____                         
|  _  |       (_)       |  __ \                        
| | | | _   _  _  ____  | |  \/  __ _  _ __ ___    ___ 
| | | || | | || ||_  /  | | __  / _` || '_ ` _ \  / _ \
\ \/' /| |_| || | / /   | |_\ \| (_| || | | | | ||  __/  ---  | htwsaar, 2020 |
 \_/\_\ \__,_||_|/___|   \____/ \__,_||_| |_| |_| \___|  